{
  "results": [
    {
      "command": "/Users/christianr/Documents/workspace/sett-rs/target/release/sett encrypt local -q -s 865079A1B73BA3F11ED0BDF7A5A9FEB57294CC4D -r 865079A1B73BA3F11ED0BDF7A5A9FEB57294CC4D -p benchmarks -o local-encrypt.zip data >> benchmarks/local-encrypt-output-20mb.txt 2>&1",
      "mean": 0.10459987168000003,
      "stddev": 0.0003098037298844226,
      "median": 0.10469942128000001,
      "user": 0.11110279999999999,
      "system": 0.0137293,
      "min": 0.10410729728000001,
      "max": 0.10487892228000001,
      "times": [
        0.10450354628000001,
        0.10410729728000001,
        0.10469942128000001,
        0.10481017128000002,
        0.10487892228000001
      ],
      "exit_codes": [
        0,
        0,
        0,
        0,
        0
      ]
    }
  ]
}
