{
  "results": [
    {
      "command": "/Users/christianr/Documents/workspace/sett-rs/target/release/sett transfer s3 -q -e http://localhost:9000/ --access-key minioadmin --secret-key minioadmin -b transfers local-encrypt.zip >> benchmarks/s3-transfer-output-1000mb.txt 2>&1",
      "mean": 1.2700952215399999,
      "stddev": 0.010879940040615847,
      "median": 1.2650291223399999,
      "user": 2.4077171,
      "system": 0.26037032,
      "min": 1.2635300383399999,
      "max": 1.28938132934,
      "times": [
        1.2650291223399999,
        1.2635300383399999,
        1.26494999634,
        1.28938132934,
        1.26758562134
      ],
      "exit_codes": [
        0,
        0,
        0,
        0,
        0
      ]
    }
  ]
}
