{
  "results": [
    {
      "command": "/Users/christianr/Documents/workspace/sett-rs/target/release/sett transfer sftp -q -H localhost -u sftp --key-path ~/.ssh/sftp_ssh_testkey --base-path upload local-encrypt.zip >> benchmarks/sftp-transfer-output-1000mb.txt 2>&1",
      "mean": 5.694816600119999,
      "stddev": 0.026252554150606667,
      "median": 5.701142691319999,
      "user": 1.59584276,
      "system": 0.42131125999999997,
      "min": 5.66357794132,
      "max": 5.72153002532,
      "times": [
        5.701142691319999,
        5.66357794132,
        5.71656219232,
        5.72153002532,
        5.67127015032
      ],
      "exit_codes": [
        0,
        0,
        0,
        0,
        0
      ]
    }
  ]
}
