{
  "results": [
    {
      "command": "/Users/christianr/Documents/workspace/sett-rs/target/release/sett encrypt sftp -q -H localhost -u sftp --key-path ~/.ssh/sftp_ssh_testkey --base-path upload -s 865079A1B73BA3F11ED0BDF7A5A9FEB57294CC4D -r 865079A1B73BA3F11ED0BDF7A5A9FEB57294CC4D -p benchmarks data >> benchmarks/sftp-encrypt-output-1000mb.txt 2>&1",
      "mean": 5.64540125348,
      "stddev": 0.019046277294406548,
      "median": 5.64631485328,
      "user": 6.3814261199999995,
      "system": 0.5176137,
      "min": 5.61990760328,
      "max": 5.67121893728,
      "times": [
        5.67121893728,
        5.61990760328,
        5.64631485328,
        5.652936061279999,
        5.63662881228
      ],
      "exit_codes": [
        0,
        0,
        0,
        0,
        0
      ]
    }
  ]
}
