{
  "results": [
    {
      "command": "/Users/christianr/Documents/workspace/sett-rs/target/release/sett encrypt sftp -q -H localhost -u sftp --key-path ~/.ssh/sftp_ssh_testkey --base-path upload -s 865079A1B73BA3F11ED0BDF7A5A9FEB57294CC4D -r 865079A1B73BA3F11ED0BDF7A5A9FEB57294CC4D -p benchmarks data >> benchmarks/sftp-encrypt-output-20mb.txt 2>&1",
      "mean": 0.46563787504,
      "stddev": 0.002080037331943668,
      "median": 0.46522471664000004,
      "user": 0.17199029999999998,
      "system": 0.02665084,
      "min": 0.46263142564,
      "max": 0.46788629964,
      "times": [
        0.46788629964,
        0.46522471664000004,
        0.46263142564,
        0.46513821664,
        0.46730871664
      ],
      "exit_codes": [
        0,
        0,
        0,
        0,
        0
      ]
    }
  ]
}
