{
  "results": [
    {
      "command": "/Users/christianr/Documents/workspace/sett-rs/target/release/sett encrypt local -q -s 865079A1B73BA3F11ED0BDF7A5A9FEB57294CC4D -r 865079A1B73BA3F11ED0BDF7A5A9FEB57294CC4D -p benchmarks -o local-encrypt.zip data >> benchmarks/local-encrypt-output-1000mb.txt 2>&1",
      "mean": 4.1685789162,
      "stddev": 0.004527672625258607,
      "median": 4.169569824600001,
      "user": 4.35446726,
      "system": 0.33135594,
      "min": 4.1630518246,
      "max": 4.1729675746,
      "times": [
        4.1726021996,
        4.1630518246,
        4.169569824600001,
        4.1647031576,
        4.1729675746
      ],
      "exit_codes": [
        0,
        0,
        0,
        0,
        0
      ]
    }
  ]
}
