{
  "results": [
    {
      "command": "/Users/christianr/Documents/workspace/sett-rs/target/release/sett encrypt s3 -q -e http://localhost:9000/ --access-key minioadmin --secret-key minioadmin -b transfers -s 865079A1B73BA3F11ED0BDF7A5A9FEB57294CC4D -r 865079A1B73BA3F11ED0BDF7A5A9FEB57294CC4D -p benchmarks data >> benchmarks/s3-encrypt-output-300mb.txt 2>&1",
      "mean": 1.8399725192399998,
      "stddev": 0.5640970833997387,
      "median": 1.4305352774400002,
      "user": 2.10966656,
      "system": 0.13255809999999996,
      "min": 1.42466573544,
      "max": 2.46191640244,
      "times": [
        2.45387886144,
        2.46191640244,
        1.42466573544,
        1.4288663194400002,
        1.4305352774400002
      ],
      "exit_codes": [
        0,
        0,
        0,
        0,
        0
      ]
    }
  ]
}
