{
  "results": [
    {
      "command": "/Users/christianr/Documents/workspace/sett-rs/target/release/sett transfer s3 -q -e http://localhost:9000/ --access-key minioadmin --secret-key minioadmin -b transfers local-encrypt.zip >> benchmarks/s3-transfer-output-300mb.txt 2>&1",
      "mean": 0.538602519,
      "stddev": 0.0017001870080797343,
      "median": 0.5389139102,
      "user": 0.77215242,
      "system": 0.09127577999999999,
      "min": 0.5357532862000001,
      "max": 0.5403359942,
      "times": [
        0.5391022022,
        0.5403359942,
        0.5389139102,
        0.5357532862000001,
        0.5389072022
      ],
      "exit_codes": [
        0,
        0,
        0,
        0,
        0
      ]
    }
  ]
}
