{
  "results": [
    {
      "command": "/Users/christianr/Documents/workspace/sett-rs/target/release/sett encrypt local -q -s 865079A1B73BA3F11ED0BDF7A5A9FEB57294CC4D -r 865079A1B73BA3F11ED0BDF7A5A9FEB57294CC4D -p benchmarks -o local-encrypt.zip data >> benchmarks/local-encrypt-output-300mb.txt 2>&1",
      "mean": 2.27105012086,
      "stddev": 0.03168123422984153,
      "median": 2.25727987886,
      "user": 2.3638160399999997,
      "system": 0.11859879999999998,
      "min": 2.24731392086,
      "max": 2.32435192086,
      "times": [
        2.24731392086,
        2.25098800386,
        2.25727987886,
        2.27531687986,
        2.32435192086
      ],
      "exit_codes": [
        0,
        0,
        0,
        0,
        0
      ]
    }
  ]
}
