✅ Completed data encryption: sftp://localhost:22/upload/20240605T180556_568134000/20240605T180556.zip (source: 20.00 MiB, destination: 20.00 MiB, ratio: 1.00)
✅ Completed data encryption: sftp://localhost:22/upload/20240605T180557_015861000/20240605T180556.zip (source: 20.00 MiB, destination: 20.00 MiB, ratio: 1.00)
✅ Completed data encryption: sftp://localhost:22/upload/20240605T180557_454532000/20240605T180557.zip (source: 20.00 MiB, destination: 20.00 MiB, ratio: 1.00)
✅ Completed data encryption: sftp://localhost:22/upload/20240605T180557_895593000/20240605T180557.zip (source: 20.00 MiB, destination: 20.00 MiB, ratio: 1.00)
✅ Completed data encryption: sftp://localhost:22/upload/20240605T180558_335471000/20240605T180558.zip (source: 20.00 MiB, destination: 20.00 MiB, ratio: 1.00)
✅ Completed data encryption: sftp://localhost:22/upload/20240605T180558_769417000/20240605T180558.zip (source: 20.00 MiB, destination: 20.00 MiB, ratio: 1.00)
✅ Completed data encryption: sftp://localhost:22/upload/20240605T180559_209948000/20240605T180558.zip (source: 20.00 MiB, destination: 20.00 MiB, ratio: 1.00)
✅ Completed data encryption: sftp://localhost:22/upload/20240605T180559_650464000/20240605T180559.zip (source: 20.00 MiB, destination: 20.00 MiB, ratio: 1.00)
