✅ Completed data encryption: sftp://localhost:22/upload/20240605T175936_501235000/20240605T175936.zip (source: 1000.00 MiB, destination: 1000.03 MiB, ratio: 1.00)
✅ Completed data encryption: sftp://localhost:22/upload/20240605T175945_270391000/20240605T175944.zip (source: 1000.00 MiB, destination: 1000.03 MiB, ratio: 1.00)
✅ Completed data encryption: sftp://localhost:22/upload/20240605T175954_043742000/20240605T175953.zip (source: 1000.00 MiB, destination: 1000.03 MiB, ratio: 1.00)
✅ Completed data encryption: sftp://localhost:22/upload/20240605T180002_800408000/20240605T180002.zip (source: 1000.00 MiB, destination: 1000.03 MiB, ratio: 1.00)
✅ Completed data encryption: sftp://localhost:22/upload/20240605T180011_616208000/20240605T180011.zip (source: 1000.00 MiB, destination: 1000.03 MiB, ratio: 1.00)
✅ Completed data encryption: sftp://localhost:22/upload/20240605T180020_417386000/20240605T180020.zip (source: 1000.00 MiB, destination: 1000.03 MiB, ratio: 1.00)
✅ Completed data encryption: sftp://localhost:22/upload/20240605T180029_231538000/20240605T180028.zip (source: 1000.00 MiB, destination: 1000.03 MiB, ratio: 1.00)
✅ Completed data encryption: sftp://localhost:22/upload/20240605T180038_035159000/20240605T180037.zip (source: 1000.00 MiB, destination: 1000.03 MiB, ratio: 1.00)
