{
  "results": [
    {
      "command": "SETT_OPENPGP_KEY_PWD=benchmarks /Users/christianr/Downloads/sett-cli_5.2.0_aarch64-apple-darwin encrypt s3 -q -e http://localhost:9000/ --access-key minioadmin --secret-key minioadmin -b transfers -s 865079A1B73BA3F11ED0BDF7A5A9FEB57294CC4D -r 865079A1B73BA3F11ED0BDF7A5A9FEB57294CC4D data >> benchmarks/s3-encrypt-output-1000mb.txt 2>&1",
      "mean": 3.95268340728,
      "stddev": 0.016648234590879135,
      "median": 3.9464287820800004,
      "user": 6.915937439999999,
      "system": 0.29216406,
      "min": 3.93848324008,
      "max": 3.97685269908,
      "times": [
        3.97685269908,
        3.96259128308,
        3.9464287820800004,
        3.93848324008,
        3.93906103208
      ],
      "exit_codes": [
        0,
        0,
        0,
        0,
        0
      ]
    }
  ]
}
