{
  "results": [
    {
      "command": "SETT_OPENPGP_KEY_PWD=benchmarks /Users/christianr/Downloads/sett-cli_5.2.0_aarch64-apple-darwin encrypt sftp -q -H localhost -u sftp --key-path ~/.ssh/sftp_ssh_testkey --base-path upload -s 865079A1B73BA3F11ED0BDF7A5A9FEB57294CC4D -r 865079A1B73BA3F11ED0BDF7A5A9FEB57294CC4D data >> benchmarks/sftp-encrypt-output-300mb.txt 2>&1",
      "mean": 1.98248678862,
      "stddev": 0.018178730783281166,
      "median": 1.97907469702,
      "user": 1.95457358,
      "system": 0.19841658,
      "min": 1.9640149470200001,
      "max": 2.00665840502,
      "times": [
        1.9675203220200002,
        2.00665840502,
        1.99516557202,
        1.9640149470200001,
        1.97907469702
      ],
      "exit_codes": [
        0,
        0,
        0,
        0,
        0
      ]
    }
  ]
}
