{
  "results": [
    {
      "command": "sett encrypt sftp -q -H localhost -u sftp --key-path ~/.ssh/sftp_ssh_testkey --base-path upload -s 865079A1B73BA3F11ED0BDF7A5A9FEB57294CC4D -r 865079A1B73BA3F11ED0BDF7A5A9FEB57294CC4D -p benchmarks data >> benchmarks/sftp-encrypt-output-300mb.txt 2>&1",
      "mean": 4.26737042094,
      "stddev": 0.013939647794449502,
      "median": 4.27007848714,
      "user": 2.8517034600000004,
      "system": 0.24565947999999999,
      "min": 4.2447025711399995,
      "max": 4.28300452914,
      "times": [
        4.2447025711399995,
        4.27060773814,
        4.27007848714,
        4.2684587791399995,
        4.28300452914
      ],
      "exit_codes": [
        0,
        0,
        0,
        0,
        0
      ]
    }
  ]
}
