✅ Completed data encryption: sftp://localhost:22/upload/20240510T072516_002001000/20240510T072515.zip (source: 20.00 MiB, destination: 20.00 MiB, ratio: 1.00)
✅ Completed data encryption: sftp://localhost:22/upload/20240510T072516_608091000/20240510T072516.zip (source: 20.00 MiB, destination: 20.00 MiB, ratio: 1.00)
✅ Completed data encryption: sftp://localhost:22/upload/20240510T072517_210970000/20240510T072516.zip (source: 20.00 MiB, destination: 20.00 MiB, ratio: 1.00)
✅ Completed data encryption: sftp://localhost:22/upload/20240510T072517_818568000/20240510T072517.zip (source: 20.00 MiB, destination: 20.00 MiB, ratio: 1.00)
✅ Completed data encryption: sftp://localhost:22/upload/20240510T072518_418837000/20240510T072518.zip (source: 20.00 MiB, destination: 20.00 MiB, ratio: 1.00)
✅ Completed data encryption: sftp://localhost:22/upload/20240510T072519_022770000/20240510T072518.zip (source: 20.00 MiB, destination: 20.00 MiB, ratio: 1.00)
✅ Completed data encryption: sftp://localhost:22/upload/20240510T072519_631433000/20240510T072519.zip (source: 20.00 MiB, destination: 20.00 MiB, ratio: 1.00)
✅ Completed data encryption: sftp://localhost:22/upload/20240510T072520_241922000/20240510T072519.zip (source: 20.00 MiB, destination: 20.00 MiB, ratio: 1.00)
✅ Completed data encryption: sftp://localhost:22/upload/20240510T073010_615633000/20240510T073010.zip (source: 20.00 MiB, destination: 20.00 MiB, ratio: 1.00)
✅ Completed data encryption: sftp://localhost:22/upload/20240510T073011_222683000/20240510T073010.zip (source: 20.00 MiB, destination: 20.00 MiB, ratio: 1.00)
✅ Completed data encryption: sftp://localhost:22/upload/20240510T073011_826427000/20240510T073011.zip (source: 20.00 MiB, destination: 20.00 MiB, ratio: 1.00)
✅ Completed data encryption: sftp://localhost:22/upload/20240510T073012_410400000/20240510T073012.zip (source: 20.00 MiB, destination: 20.00 MiB, ratio: 1.00)
✅ Completed data encryption: sftp://localhost:22/upload/20240510T073013_019256000/20240510T073012.zip (source: 20.00 MiB, destination: 20.00 MiB, ratio: 1.00)
✅ Completed data encryption: sftp://localhost:22/upload/20240510T073013_619102000/20240510T073013.zip (source: 20.00 MiB, destination: 20.00 MiB, ratio: 1.00)
✅ Completed data encryption: sftp://localhost:22/upload/20240510T073014_225273000/20240510T073013.zip (source: 20.00 MiB, destination: 20.00 MiB, ratio: 1.00)
✅ Completed data encryption: sftp://localhost:22/upload/20240510T073014_806026000/20240510T073014.zip (source: 20.00 MiB, destination: 20.00 MiB, ratio: 1.00)
