✅ Completed data transfer: sftp://localhost:22/upload/20240510T073521_902324000/local-encrypt.zip (source: 300.01 MiB)
✅ Completed data transfer: sftp://localhost:22/upload/20240510T073523_821442000/local-encrypt.zip (source: 300.01 MiB)
✅ Completed data transfer: sftp://localhost:22/upload/20240510T073525_745083000/local-encrypt.zip (source: 300.01 MiB)
✅ Completed data transfer: sftp://localhost:22/upload/20240510T073527_599123000/local-encrypt.zip (source: 300.01 MiB)
✅ Completed data transfer: sftp://localhost:22/upload/20240510T073529_524490000/local-encrypt.zip (source: 300.01 MiB)
✅ Completed data transfer: sftp://localhost:22/upload/20240510T073531_439118000/local-encrypt.zip (source: 300.01 MiB)
✅ Completed data transfer: sftp://localhost:22/upload/20240510T073533_353333000/local-encrypt.zip (source: 300.01 MiB)
✅ Completed data transfer: sftp://localhost:22/upload/20240510T073535_262429000/local-encrypt.zip (source: 300.01 MiB)
