✅ Completed data encryption: https://sett-transfers.s3.eu-central-1.amazonaws.com/20240323T135948.zip (source: 1000.00 MiB, destination: 1000.03 MiB, ratio: 1.00)
✅ Completed data encryption: https://sett-transfers.s3.eu-central-1.amazonaws.com/20240323T140025.zip (source: 1000.00 MiB, destination: 1000.03 MiB, ratio: 1.00)
✅ Completed data encryption: https://sett-transfers.s3.eu-central-1.amazonaws.com/20240323T140102.zip (source: 1000.00 MiB, destination: 1000.03 MiB, ratio: 1.00)
✅ Completed data encryption: https://sett-transfers.s3.eu-central-1.amazonaws.com/20240323T140140.zip (source: 1000.00 MiB, destination: 1000.03 MiB, ratio: 1.00)
✅ Completed data encryption: https://sett-transfers.s3.eu-central-1.amazonaws.com/20240323T140219.zip (source: 1000.00 MiB, destination: 1000.03 MiB, ratio: 1.00)
✅ Completed data encryption: https://sett-transfers.s3.eu-central-1.amazonaws.com/20240323T140257.zip (source: 1000.00 MiB, destination: 1000.03 MiB, ratio: 1.00)
✅ Completed data encryption: https://sett-transfers.s3.eu-central-1.amazonaws.com/20240323T140336.zip (source: 1000.00 MiB, destination: 1000.03 MiB, ratio: 1.00)
✅ Completed data encryption: https://sett-transfers.s3.eu-central-1.amazonaws.com/20240323T140413.zip (source: 1000.00 MiB, destination: 1000.03 MiB, ratio: 1.00)
