{
  "results": [
    {
      "command": "sett transfer s3 -q -e http://localhost:9000 --access-key vagrant --secret-key tQmNhhLNhRX9 -b transfers local-encrypt.zip >> benchmarks/s3-transfer-output-20mb.txt 2>&1",
      "mean": 0.33468577614,
      "stddev": 0.03933628484073931,
      "median": 0.35430023874,
      "user": 0.12254357999999999,
      "system": 0.026221519999999998,
      "min": 0.27490404974000004,
      "max": 0.36675018074000004,
      "times": [
        0.27490404974000004,
        0.31455211674,
        0.36292229474000004,
        0.35430023874,
        0.36675018074000004
      ],
      "exit_codes": [
        0,
        0,
        0,
        0,
        0
      ]
    }
  ]
}
