{
  "results": [
    {
      "command": "sett encrypt sftp -q -H localhost -P 2222 -u vagrant --key-path .ssh/id_ed25519 --base-path upload -s 865079A1B73BA3F11ED0BDF7A5A9FEB57294CC4D -r 865079A1B73BA3F11ED0BDF7A5A9FEB57294CC4D -p benchmarks data >> benchmarks/sftp-encrypt-output-300mb.txt 2>&1",
      "mean": 66.9318912037,
      "stddev": 3.349711508482915,
      "median": 66.5414440495,
      "user": 63.85532179999999,
      "system": 2.8231021399999996,
      "min": 63.5713651875,
      "max": 70.90074277949999,
      "times": [
        63.8513222845,
        69.7945817175,
        70.90074277949999,
        66.5414440495,
        63.5713651875
      ],
      "exit_codes": [
        0,
        0,
        0,
        0,
        0
      ]
    }
  ]
}
