{
  "results": [
    {
      "command": "sett decrypt -q -s 865079A1B73BA3F11ED0BDF7A5A9FEB57294CC4D -r 865079A1B73BA3F11ED0BDF7A5A9FEB57294CC4D -p benchmarks local-encrypt.zip >> benchmarks/decrypt-output-1000mb.txt 2>&1",
      "mean": 8.999672261419999,
      "stddev": 0.006880953049721517,
      "median": 9.00028588142,
      "user": 8.0932276,
      "system": 0.9066759399999998,
      "min": 8.99011951142,
      "max": 9.00905291042,
      "times": [
        8.99725326942,
        8.99011951142,
        9.00028588142,
        9.00905291042,
        9.001649734419999
      ],
      "exit_codes": [
        0,
        0,
        0,
        0,
        0
      ]
    }
  ]
}
